Eq/SystemCImplementation/trace.vcd
$date
     Dec 19, 2024       15:21:10
$end

$version
 SystemC 3.0.0-Accellera --- Sep  3 2024 17:54:21
$end

$timescale
     100 us
$end

$scope module SystemC $end
$var wire    1  aaaaa  clock       $end
$var wire    1  aaaab  reset       $end
$var wire   32  aaaac  inData [31:0]  $end
$var wire   32  aaaad  outData [31:0]  $end
$upscope $end
$enddefinitions  $end

$comment
All initial values are dumped below at time 0 sec = 0 timescale units.
$end

$dumpvars
1aaaaa
1aaaab
b0 aaaac
b0 aaaad
$end

#20000
0aaaaa

#40000
1aaaaa
0aaaab

#60000
0aaaaa

#80000
1aaaaa
b101010111001001 aaaac

#100000
0aaaaa

#120000
1aaaaa

#140000
0aaaaa

#160000
1aaaaa
b1010101110001111 aaaac
b101010100000101 aaaad

#180000
0aaaaa

#200000
1aaaaa

#220000
0aaaaa

#240000
1aaaaa
b10000000101010001 aaaac
b1010100010000100 aaaad

#260000
0aaaaa

#280000
1aaaaa

#300000
0aaaaa

#320000
1aaaaa
b10101011100001100 aaaac
b1111101010000101 aaaad

#340000
0aaaaa

#360000
1aaaaa

#380000
0aaaaa

#400000
1aaaaa
b11010110010111100 aaaac
b10100101100010000 aaaad

#420000
0aaaaa

#440000
1aaaaa

#460000
0aaaaa

#480000
1aaaaa
b100000001001100001 aaaac
b11001101000101011 aaaad

#500000
0aaaaa

#520000
1aaaaa

#540000
0aaaaa

#560000
1aaaaa
b100101011111111000 aaaac
b11110011111011110 aaaad

#580000
0aaaaa

#600000
1aaaaa

#620000
0aaaaa

#640000
1aaaaa
b101010110101111101 aaaac
b100011010000110010 aaaad

#660000
0aaaaa

#680000
1aaaaa

#700000
0aaaaa

#720000
1aaaaa
b110000001011101111 aaaac
b100111111100101011 aaaad

#740000
0aaaaa

#760000
1aaaaa

#780000
0aaaaa

#800000
1aaaaa
b110101100001001100 aaaac
b101100100011010010 aaaad

#820000
0aaaaa

#840000
1aaaaa

#860000
0aaaaa

#880000
1aaaaa
b111010110110010001 aaaac
b110001000100101101 aaaad

#900000
0aaaaa

#920000
1aaaaa

#940000
0aaaaa

#960000
1aaaaa
b1000000001010111011 aaaac
b110101100001000001 aaaad

#980000
0aaaaa

#1000000
1aaaaa

#1020000
0aaaaa

#1040000
1aaaaa
b1000101011111001000 aaaac
b111001111000010101 aaaad

#1060000
0aaaaa

#1080000
1aaaaa

#1100000
0aaaaa

#1120000
1aaaaa
b1001010110010110110 aaaac
b111110001010101110 aaaad

#1140000
0aaaaa

#1160000
1aaaaa

#1180000
0aaaaa

#1200000
1aaaaa
b1010000000110000011 aaaac
b1000010011000010011 aaaad

#1220000
0aaaaa

#1240000
1aaaaa

#1260000
0aaaaa

#1280000
1aaaaa
b1010101011000101011 aaaac
b1000110100001001011 aaaad

#1300000
0aaaaa

#1320000
1aaaaa

#1340000
0aaaaa

#1360000
1aaaaa
b1011010101010101101 aaaac
b1001010100101011010 aaaad

#1380000
0aaaaa

#1400000
1aaaaa

#1420000
0aaaaa

#1440000
1aaaaa
b1011111111100000111 aaaac
b1001110100101000110 aaaad

#1460000
0aaaaa

#1480000
1aaaaa

#1500000
0aaaaa

#1520000
1aaaaa
b1100101001100110101 aaaac
b1010010100000010101 aaaad

#1540000
0aaaaa

#1560000
1aaaaa

#1580000
0aaaaa

#1600000
1aaaaa
b1101010011100110110 aaaac
b1010110010111001101 aaaad

#1620000
0aaaaa

#1640000
1aaaaa

#1660000
0aaaaa

#1680000
1aaaaa
b1101111101100000111 aaaac
b1011010001001110011 aaaad

#1700000
0aaaaa

#1720000
1aaaaa

#1740000
0aaaaa

#1760000
1aaaaa
b1110100111010100110 aaaac
b1011101111000001011 aaaad

#1780000
0aaaaa

#1800000
1aaaaa

#1820000
0aaaaa

#1840000
1aaaaa
b1111010001000010001 aaaac
b1100001100010011011 aaaad

#1860000
0aaaaa

#1880000
1aaaaa

#1900000
0aaaaa

#1920000
1aaaaa
b1111111010101000100 aaaac
b1100101001000101000 aaaad

#1940000
0aaaaa

#1960000
1aaaaa

#1980000
0aaaaa

#2000000
1aaaaa
b10000100100000111111 aaaac
b1101000101010110101 aaaad

#2020000
0aaaaa

#2040000
1aaaaa

#2060000
0aaaaa

#2080000
1aaaaa
b10001001101011111101 aaaac
b1101100001001001001 aaaad

#2100000
0aaaaa

#2120000
1aaaaa

#2140000
0aaaaa

#2160000
1aaaaa
b10001110110101111110 aaaac
b1101111100011100110 aaaad

#2180000
0aaaaa

#2200000
1aaaaa

#2220000
0aaaaa

#2240000
1aaaaa
b10010011111110111111 aaaac
b1110010111010010010 aaaad

#2260000
0aaaaa

#2280000
1aaaaa

#2300000
0aaaaa

#2320000
1aaaaa
b10011001000110111110 aaaac
b1110110001101010001 aaaad

#2340000
0aaaaa

#2360000
1aaaaa

#2380000
0aaaaa

#2400000
1aaaaa
b10011110001101110111 aaaac
b1111001011100101000 aaaad

#2420000
0aaaaa

#2440000
1aaaaa

#2460000
0aaaaa

#2480000
1aaaaa
b10100011010011101010 aaaac
b1111100101000011000 aaaad

#2500000
0aaaaa

#2520000
1aaaaa

#2540000
0aaaaa

#2560000
1aaaaa
b10101000011000010011 aaaac
b1111111110000101000 aaaad

#2580000
0aaaaa

#2600000
1aaaaa

#2620000
0aaaaa

#2640000
1aaaaa
b10000010110101011010 aaaad

#2660000
0aaaaa

#2680000
1aaaaa

#2700000
0aaaaa

#2720000
1aaaaa
b10000000110110001101 aaaad

#2740000
0aaaaa

#2760000
1aaaaa

#2780000
0aaaaa

#2800000
1aaaaa
b1111110111010100001 aaaad

#2820000
0aaaaa

#2840000
1aaaaa

#2860000
0aaaaa

#2880000
1aaaaa
b1111101000010010010 aaaad

#2900000
0aaaaa

#2920000
1aaaaa

#2940000
0aaaaa

#2960000
1aaaaa
b1111011001101011011 aaaad

#2980000
0aaaaa

#3000000
1aaaaa

#3020000
0aaaaa

#3040000
1aaaaa
b1111001011011110111 aaaad

#3060000
0aaaaa

#3080000
1aaaaa

#3100000
0aaaaa

#3120000
1aaaaa
b1110111101101100001 aaaad

#3140000
0aaaaa

#3160000
1aaaaa

#3180000
0aaaaa

#3200000
1aaaaa
b1110110000010010101 aaaad

#3220000
0aaaaa

#3240000
1aaaaa

#3260000
0aaaaa

#3280000
1aaaaa
b1110100011010001110 aaaad

#3300000
0aaaaa

#3320000
1aaaaa

#3340000
0aaaaa

#3360000
1aaaaa
b1110010110101001000 aaaad

#3380000
0aaaaa

#3400000
1aaaaa

#3420000
0aaaaa

#3440000
1aaaaa
b1110001010010111110 aaaad

#3460000
0aaaaa

#3480000
1aaaaa

#3500000
0aaaaa

#3520000
1aaaaa
b1101111110011101100 aaaad

#3540000
0aaaaa

#3560000
1aaaaa

#3580000
0aaaaa

#3600000
1aaaaa
b1101110010111001110 aaaad

#3620000
0aaaaa

#3640000
1aaaaa

#3660000
0aaaaa

#3680000
1aaaaa
b1101100111101011111 aaaad

#3700000
0aaaaa

#3720000
1aaaaa

#3740000
0aaaaa

#3760000
1aaaaa
b1101011100110011100 aaaad

#3780000
0aaaaa

#3800000
1aaaaa

#3820000
0aaaaa

#3840000
1aaaaa
b1101010010010000001 aaaad

#3860000
0aaaaa

#3880000
1aaaaa

#3900000
0aaaaa

#3920000
1aaaaa
b1101001000000001011 aaaad

#3940000
0aaaaa

#3960000
1aaaaa

#3980000
0aaaaa

#4000000
1aaaaa
b1100111110000110101 aaaad

#4020000
0aaaaa

#4040000
1aaaaa

#4060000
0aaaaa

#4080000
1aaaaa
b1100110100011111100 aaaad

#4100000
0aaaaa

#4120000
1aaaaa

#4140000
0aaaaa

#4160000
1aaaaa
b1100101011001011100 aaaad

#4180000
0aaaaa

#4200000
1aaaaa

#4220000
0aaaaa

#4240000
1aaaaa
b1100100010001010010 aaaad

#4260000
0aaaaa

#4280000
1aaaaa

#4300000
0aaaaa

#4320000
1aaaaa
b1100011001011011010 aaaad

#4340000
0aaaaa

#4360000
1aaaaa

#4380000
0aaaaa

#4400000
1aaaaa
b1100010000111110001 aaaad

#4420000
0aaaaa

#4440000
1aaaaa

#4460000
0aaaaa

#4480000
1aaaaa
b1100001000110010100 aaaad

#4500000
0aaaaa

#4520000
1aaaaa

#4540000
0aaaaa

#4560000
1aaaaa
b1100000000110111111 aaaad

#4580000
0aaaaa

#4600000
1aaaaa

#4620000
0aaaaa

#4640000
1aaaaa
b1011111001001101111 aaaad

#4660000
0aaaaa

#4680000
1aaaaa

#4700000
0aaaaa

#4720000
1aaaaa
b1011110001110100010 aaaad

#4740000
0aaaaa

#4760000
1aaaaa

#4780000
0aaaaa

#4800000
1aaaaa
b1011101010101010100 aaaad

#4820000
0aaaaa

#4840000
1aaaaa

#4860000
0aaaaa

#4880000
1aaaaa
b1011100011110000011 aaaad

#4900000
0aaaaa

#4920000
1aaaaa

#4940000
0aaaaa

#4960000
1aaaaa
b1011011101000101100 aaaad

#4980000
0aaaaa

#5000000
1aaaaa

#5020000
0aaaaa

#5040000
1aaaaa
b1011010110101001101 aaaad

#5060000
0aaaaa

#5080000
1aaaaa

#5100000
0aaaaa

#5120000
1aaaaa
b1011010000011100011 aaaad

#5140000
0aaaaa

#5160000
1aaaaa

#5180000
0aaaaa

#5200000
1aaaaa
b1011001010011101010 aaaad

#5220000
0aaaaa

#5240000
1aaaaa

#5260000
0aaaaa

#5280000
1aaaaa
b1011000100101100000 aaaad

#5300000
0aaaaa

#5320000
1aaaaa

#5340000
0aaaaa

#5360000
1aaaaa
b1010111111001000011 aaaad

#5380000
0aaaaa

#5400000
1aaaaa

#5420000
0aaaaa

#5440000
1aaaaa
b1010111001110010000 aaaad

#5460000
0aaaaa

#5480000
1aaaaa

#5500000
0aaaaa

#5520000
1aaaaa
b1010110100101000100 aaaad

#5540000
0aaaaa

#5560000
1aaaaa

#5580000
0aaaaa

#5600000
1aaaaa
b1010101111101011101 aaaad

#5620000
0aaaaa

#5640000
1aaaaa

#5660000
0aaaaa

#5680000
1aaaaa
b1010101010111011000 aaaad

#5700000
0aaaaa

#5720000
1aaaaa

#5740000
0aaaaa

#5760000
1aaaaa
b1010100110010110100 aaaad

#5780000
0aaaaa

#5800000
1aaaaa

#5820000
0aaaaa

#5840000
1aaaaa
b1010100001111101110 aaaad

#5860000
0aaaaa

#5880000
1aaaaa

#5900000
0aaaaa

#5920000
1aaaaa
b1010011101110000100 aaaad

#5940000
0aaaaa

#5960000
1aaaaa

#5980000
0aaaaa

#6000000
1aaaaa
b1010011001101110100 aaaad

#6020000
0aaaaa

#6040000
1aaaaa

#6060000
0aaaaa

#6080000
1aaaaa
b1010010101110111100 aaaad

#6100000
0aaaaa

#6120000
1aaaaa

#6140000
0aaaaa

#6160000
1aaaaa
b1010010010001011001 aaaad

#6180000
0aaaaa

#6200000
1aaaaa

#6220000
0aaaaa

#6240000
1aaaaa
b1010001110101001010 aaaad

#6260000
0aaaaa

#6280000
1aaaaa

#6300000
0aaaaa

#6320000
1aaaaa
b1010001011010001101 aaaad

#6340000
0aaaaa

#6360000
1aaaaa

#6380000
0aaaaa

#6400000
1aaaaa
b1010001000000100000 aaaad

#6420000
0aaaaa

#6440000
1aaaaa

#6460000
0aaaaa

#6480000
1aaaaa
b1010000101000000001 aaaad

#6500000
0aaaaa

#6520000
1aaaaa

#6540000
0aaaaa

#6560000
1aaaaa
b1010000010000101110 aaaad

#6580000
0aaaaa

#6600000
1aaaaa

#6620000
0aaaaa

#6640000
1aaaaa
b1001111111010100110 aaaad

#6660000
0aaaaa

#6680000
1aaaaa

#6700000
0aaaaa

#6720000
1aaaaa
b1001111100101100111 aaaad

#6740000
0aaaaa

#6760000
1aaaaa

#6780000
0aaaaa

#6800000
1aaaaa
b1001111010001101111 aaaad

#6820000
0aaaaa

#6840000
1aaaaa

#6860000
0aaaaa

#6880000
1aaaaa
b1001110111110111100 aaaad

#6900000
0aaaaa

#6920000
1aaaaa

#6940000
0aaaaa

#6960000
1aaaaa
b1001110101101001100 aaaad

#6980000
0aaaaa

#7000000
1aaaaa

#7020000
0aaaaa

#7040000
1aaaaa
b1001110011100011110 aaaad

#7060000
0aaaaa

#7080000
1aaaaa

#7100000
0aaaaa

#7120000
1aaaaa
b1001110001100110000 aaaad

#7140000
0aaaaa

#7160000
1aaaaa

#7180000
0aaaaa

#7200000
1aaaaa
b1001101111110000000 aaaad

#7220000
0aaaaa

#7240000
1aaaaa

#7260000
0aaaaa

#7280000
1aaaaa
b1001101110000001101 aaaad

#7300000
0aaaaa

#7320000
1aaaaa

#7340000
0aaaaa

#7360000
1aaaaa
b1001101100011010110 aaaad

#7380000
0aaaaa

#7400000
1aaaaa

#7420000
0aaaaa

#7440000
1aaaaa
b1001101010111011001 aaaad

#7460000
0aaaaa

#7480000
1aaaaa

#7500000
0aaaaa

#7520000
1aaaaa
b1001101001100010100 aaaad

#7540000
0aaaaa

#7560000
1aaaaa

#7580000
0aaaaa

#7600000
1aaaaa
b1001101000010000110 aaaad

#7620000
0aaaaa

#7640000
1aaaaa

#7660000
0aaaaa

#7680000
1aaaaa
b1001100111000101110 aaaad

#7700000
0aaaaa

#7720000
1aaaaa

#7740000
0aaaaa

#7760000
1aaaaa
b1001100110000001010 aaaad

#7780000
0aaaaa

#7800000
1aaaaa

#7820000
0aaaaa

#7840000
1aaaaa
b1001100101000011001 aaaad

#7860000
0aaaaa

#7880000
1aaaaa

#7900000
0aaaaa

#7920000
1aaaaa
b1001100100001011010 aaaad

#7940000
0aaaaa

#7960000
1aaaaa

#7980000
0aaaaa

#8000000
1aaaaa
b1001100011011001011 aaaad

#8020000
0aaaaa

#8040000
1aaaaa

#8060000
0aaaaa

#8080000
1aaaaa
b1001100010101101100 aaaad

#8100000
0aaaaa

#8120000
1aaaaa

#8140000
0aaaaa

#8160000
1aaaaa
b1001100010000111011 aaaad

#8180000
0aaaaa

#8200000
1aaaaa

#8220000
0aaaaa

#8240000
1aaaaa
b1001100001100110111 aaaad

#8260000
0aaaaa

#8280000
1aaaaa

#8300000
0aaaaa

#8320000
1aaaaa
b1001100001001011111 aaaad

#8340000
0aaaaa

#8360000
1aaaaa

#8380000
0aaaaa

#8400000
1aaaaa
b1001100000110110001 aaaad

#8420000
0aaaaa

#8440000
1aaaaa

#8460000
0aaaaa

#8480000
1aaaaa
b1001100000100101101 aaaad

#8500000
0aaaaa

#8520000
1aaaaa

#8540000
0aaaaa

#8560000
1aaaaa
b1001100000011010001 aaaad

#8580000
0aaaaa

#8600000
1aaaaa

#8620000
0aaaaa

#8640000
1aaaaa
b1001100000010011101 aaaad

#8660000
0aaaaa

#8680000
1aaaaa

#8700000
0aaaaa

#8720000
1aaaaa
b1001100000010010000 aaaad

#8740000
0aaaaa

#8760000
1aaaaa

#8780000
0aaaaa

#8800000
1aaaaa
b1001100000010101000 aaaad

#8820000
0aaaaa

#8840000
1aaaaa

#8860000
0aaaaa

#8880000
1aaaaa
b1001100000011100101 aaaad

#8900000
0aaaaa

#8920000
1aaaaa

#8940000
0aaaaa

#8960000
1aaaaa
b1001100000101000101 aaaad

#8980000
0aaaaa

#9000000
1aaaaa

#9020000
0aaaaa

#9040000
1aaaaa
b1001100000111001000 aaaad

#9060000
0aaaaa

#9080000
1aaaaa

#9100000
0aaaaa

#9120000
1aaaaa
b1001100001001101101 aaaad

#9140000
0aaaaa

#9160000
1aaaaa

#9180000
0aaaaa

#9200000
1aaaaa
b1001100001100110011 aaaad

#9220000
0aaaaa

#9240000
1aaaaa

#9260000
0aaaaa

#9280000
1aaaaa
b1001100010000011001 aaaad

#9300000
0aaaaa

#9320000
1aaaaa

#9340000
0aaaaa

#9360000
1aaaaa
b1001100010100011110 aaaad

#9380000
0aaaaa

#9400000
1aaaaa

#9420000
0aaaaa

#9440000
1aaaaa
b1001100011001000001 aaaad

#9460000
0aaaaa

#9480000
1aaaaa

#9500000
0aaaaa

#9520000
1aaaaa
b1001100011110000001 aaaad

#9540000
0aaaaa

#9560000
1aaaaa

#9580000
0aaaaa

#9600000
1aaaaa
b1001100100011011110 aaaad

#9620000
0aaaaa

#9640000
1aaaaa

#9660000
0aaaaa

#9680000
1aaaaa
b1001100101001010111 aaaad

#9700000
0aaaaa

#9720000
1aaaaa

#9740000
0aaaaa

#9760000
1aaaaa
b1001100101111101011 aaaad

#9780000
0aaaaa

#9800000
1aaaaa

#9820000
0aaaaa

#9840000
1aaaaa
b1001100110110011010 aaaad

#9860000
0aaaaa

#9880000
1aaaaa

#9900000
0aaaaa

#9920000
1aaaaa
b1001100111101100010 aaaad

#9940000
0aaaaa

#9960000
1aaaaa

#9980000
0aaaaa

#10000000
1aaaaa
b1001101000101000011 aaaad

#10020000
0aaaaa

#10040000
1aaaaa

#10060000
0aaaaa

#10080000
1aaaaa
b1001101001100111100 aaaad

#10100000
0aaaaa

#10120000
1aaaaa

#10140000
0aaaaa

#10160000
1aaaaa
b1001101010101001101 aaaad

#10180000
0aaaaa

#10200000
1aaaaa

#10220000
0aaaaa

#10240000
1aaaaa
b1001101011101110101 aaaad

#10260000
0aaaaa

#10280000
1aaaaa

#10300000
0aaaaa

#10320000
1aaaaa
b1001101100110110011 aaaad

#10340000
0aaaaa

#10360000
1aaaaa

#10380000
0aaaaa

#10400000
1aaaaa
b1001101110000000110 aaaad

#10420000
0aaaaa

#10440000
1aaaaa

#10460000
0aaaaa

#10480000
1aaaaa
b1001101111001101110 aaaad

#10500000
0aaaaa

#10520000
1aaaaa

#10540000
0aaaaa

#10560000
1aaaaa
b1001110000011101011 aaaad

#10580000
0aaaaa

#10600000
1aaaaa

#10620000
0aaaaa

#10640000
1aaaaa
b1001110001101111100 aaaad

#10660000
0aaaaa

#10680000
1aaaaa

#10700000
0aaaaa

#10720000
1aaaaa
b1001110011000100000 aaaad

#10740000
0aaaaa

#10760000
1aaaaa

#10780000
0aaaaa

#10800000
1aaaaa
b1001110100011010110 aaaad

#10820000
0aaaaa

#10840000
1aaaaa

#10860000
0aaaaa

#10880000
1aaaaa
b1001110101110011110 aaaad

#10900000
0aaaaa

#10920000
1aaaaa

#10940000
0aaaaa

#10960000
1aaaaa
b1001110111001111000 aaaad

#10980000
0aaaaa

#11000000
1aaaaa

#11020000
0aaaaa

#11040000
1aaaaa
b1001111000101100011 aaaad

#11060000
0aaaaa

#11080000
1aaaaa

#11100000
0aaaaa

#11120000
1aaaaa
b1001111010001011110 aaaad

#11140000
0aaaaa

#11160000
1aaaaa

#11180000
0aaaaa

#11200000
1aaaaa
b1001111011101101001 aaaad

#11220000
0aaaaa

#11240000
1aaaaa

#11260000
0aaaaa

#11280000
1aaaaa
b1001111101010000100 aaaad

#11300000
0aaaaa

#11320000
1aaaaa

#11340000
0aaaaa

#11360000
1aaaaa
b1001111110110101110 aaaad

#11380000
0aaaaa

#11400000
1aaaaa

#11420000
0aaaaa

#11440000
1aaaaa
b1010000000011100110 aaaad

#11460000
0aaaaa

#11480000
1aaaaa

#11500000
0aaaaa

#11520000
1aaaaa
b1010000010000101101 aaaad

#11540000
0aaaaa

#11560000
1aaaaa

#11580000
0aaaaa

#11600000
1aaaaa
b1010000011110000010 aaaad

#11620000
0aaaaa

#11640000
1aaaaa

#11660000
0aaaaa

#11680000
1aaaaa
b1010000101011100100 aaaad

#11700000
0aaaaa

#11720000
1aaaaa

#11740000
0aaaaa

#11760000
1aaaaa
b1010000111001010011 aaaad

#11780000
0aaaaa

#11800000
1aaaaa

#11820000
0aaaaa

#11840000
1aaaaa
b1010001000111001110 aaaad

#11860000
0aaaaa

#11880000
1aaaaa

#11900000
0aaaaa

#11920000
1aaaaa
b1010001010101010101 aaaad

#11940000
0aaaaa

#11960000
1aaaaa

#11980000
0aaaaa

#12000000
1aaaaa
b1010001100011100111 aaaad

#12020000
0aaaaa

#12040000
1aaaaa

#12060000
0aaaaa

#12080000
1aaaaa
b1010001110010000100 aaaad

#12100000
0aaaaa

#12120000
1aaaaa

#12140000
0aaaaa

#12160000
1aaaaa
b1010010000000101100 aaaad

#12180000
0aaaaa

#12200000
1aaaaa

#12220000
0aaaaa

#12240000
1aaaaa
b1010010001111011111 aaaad

#12260000
0aaaaa

#12280000
1aaaaa

#12300000
0aaaaa

#12320000
1aaaaa
b1010010011110011100 aaaad

#12340000
0aaaaa

#12360000
1aaaaa

#12380000
0aaaaa

#12400000
1aaaaa
b1010010101101100011 aaaad

#12420000
0aaaaa

#12440000
1aaaaa

#12460000
0aaaaa

#12480000
1aaaaa
b1010010111100110100 aaaad

#12500000
0aaaaa

#12520000
1aaaaa

#12540000
0aaaaa

#12560000
1aaaaa
b1010011001100001110 aaaad

#12580000
0aaaaa

#12600000
1aaaaa

#12620000
0aaaaa

#12640000
1aaaaa
b1010011011011110000 aaaad

#12660000
0aaaaa

#12680000
1aaaaa

#12700000
0aaaaa

#12720000
1aaaaa
b1010011101011011010 aaaad

#12740000
0aaaaa

#12760000
1aaaaa

#12780000
0aaaaa

#12800000
1aaaaa
b1010011111011001100 aaaad

#12820000
0aaaaa

#12840000
1aaaaa

#12860000
0aaaaa

#12880000
1aaaaa
b1010100001011000110 aaaad

#12900000
0aaaaa

#12920000
1aaaaa

#12940000
0aaaaa

#12960000
1aaaaa
b1010100011011000111 aaaad

#12980000
0aaaaa

#13000000
1aaaaa

#13020000
0aaaaa

#13040000
1aaaaa
b1010100101011001111 aaaad

#13060000
0aaaaa

#13080000
1aaaaa

#13100000
0aaaaa

#13120000
1aaaaa
b1010100111011011110 aaaad

#13140000
0aaaaa

#13160000
1aaaaa

#13180000
0aaaaa

#13200000
1aaaaa
b1010101001011110100 aaaad

#13220000
0aaaaa

#13240000
1aaaaa

#13260000
0aaaaa

#13280000
1aaaaa
b1010101011100010000 aaaad

#13300000
0aaaaa

#13320000
1aaaaa

#13340000
0aaaaa

#13360000
1aaaaa
b1010101101100110010 aaaad

#13380000
0aaaaa

#13400000
1aaaaa

#13420000
0aaaaa

#13440000
1aaaaa
b1010101111101011001 aaaad

#13460000
0aaaaa

#13480000
1aaaaa

#13500000
0aaaaa

#13520000
1aaaaa
b1010110001110000101 aaaad

#13540000
0aaaaa

#13560000
1aaaaa

#13580000
0aaaaa

#13600000
1aaaaa
b1010110011110110110 aaaad

#13620000
0aaaaa

#13640000
1aaaaa

#13660000
0aaaaa

#13680000
1aaaaa
b1010110101111101100 aaaad

#13700000
0aaaaa

#13720000
1aaaaa

#13740000
0aaaaa

#13760000
1aaaaa
b1010111000000100110 aaaad

#13780000
0aaaaa

#13800000
1aaaaa

#13820000
0aaaaa

#13840000
1aaaaa
b1010111010001100100 aaaad

#13860000
0aaaaa

#13880000
1aaaaa

#13900000
0aaaaa

#13920000
1aaaaa
b1010111100010100110 aaaad

#13940000
0aaaaa

#13960000
1aaaaa

#13980000
0aaaaa

#14000000
1aaaaa
b1010111110011101011 aaaad

#14020000
0aaaaa

#14040000
1aaaaa

#14060000
0aaaaa

#14080000
1aaaaa
b1011000000100110100 aaaad

#14100000
0aaaaa

#14120000
1aaaaa

#14140000
0aaaaa

#14160000
1aaaaa
b1011000010110000000 aaaad

#14180000
0aaaaa

#14200000
1aaaaa

#14220000
0aaaaa

#14240000
1aaaaa
b1011000100111001111 aaaad

#14260000
0aaaaa

#14280000
1aaaaa

#14300000
0aaaaa

#14320000
1aaaaa
b1011000111000100001 aaaad

#14340000
0aaaaa

#14360000
1aaaaa

#14380000
0aaaaa

#14400000
1aaaaa
b1011001001001110110 aaaad

#14420000
0aaaaa

#14440000
1aaaaa

#14460000
0aaaaa

#14480000
1aaaaa
b1011001011011001110 aaaad

#14500000
0aaaaa

#14520000
1aaaaa

#14540000
0aaaaa

#14560000
1aaaaa
b1011001101100101001 aaaad

#14580000
0aaaaa

#14600000
1aaaaa

#14620000
0aaaaa

#14640000
1aaaaa
b1011001111110000110 aaaad

#14660000
0aaaaa

#14680000
1aaaaa

#14700000
0aaaaa

#14720000
1aaaaa
b1011010001111100101 aaaad

#14740000
0aaaaa

#14760000
1aaaaa

#14780000
0aaaaa

#14800000
1aaaaa
b1011010100001000101 aaaad

#14820000
0aaaaa

#14840000
1aaaaa

#14860000
0aaaaa

#14880000
1aaaaa
b1011010110010100111 aaaad

#14900000
0aaaaa

#14920000
1aaaaa

#14940000
0aaaaa

#14960000
1aaaaa
b1011011000100001011 aaaad

#14980000
0aaaaa

#15000000
1aaaaa

#15020000
0aaaaa

#15040000
1aaaaa
b1011011010101110001 aaaad

#15060000
0aaaaa

#15080000
1aaaaa

#15100000
0aaaaa

#15120000
1aaaaa
b1011011100111011000 aaaad

#15140000
0aaaaa

#15160000
1aaaaa

#15180000
0aaaaa

#15200000
1aaaaa
b1011011111001000000 aaaad

#15220000
0aaaaa

#15240000
1aaaaa

#15260000
0aaaaa

#15280000
1aaaaa
b1011100001010101001 aaaad

#15300000
0aaaaa

#15320000
1aaaaa

#15340000
0aaaaa

#15360000
1aaaaa
b1011100011100010011 aaaad

#15380000
0aaaaa

#15400000
1aaaaa

#15420000
0aaaaa

#15440000
1aaaaa
b1011100101101111101 aaaad

#15460000
0aaaaa

#15480000
1aaaaa

#15500000
0aaaaa

#15520000
1aaaaa
b1011100111111101000 aaaad

#15540000
0aaaaa

#15560000
1aaaaa

#15580000
0aaaaa

#15600000
1aaaaa
b1011101010001010011 aaaad

#15620000
0aaaaa

#15640000
1aaaaa

#15660000
0aaaaa

#15680000
1aaaaa
b1011101100010111110 aaaad

#15700000
0aaaaa

#15720000
1aaaaa

#15740000
0aaaaa

#15760000
1aaaaa
b1011101110100101001 aaaad

#15780000
0aaaaa

#15800000
1aaaaa

#15820000
0aaaaa

#15840000
1aaaaa
b1011110000110010100 aaaad

#15860000
0aaaaa

#15880000
1aaaaa

#15900000
0aaaaa

#15920000
1aaaaa
b1011110010111111111 aaaad

#15940000
0aaaaa

#15960000
1aaaaa

#15980000
0aaaaa

#16000000
1aaaaa
b1011110101001101010 aaaad

#16020000
0aaaaa

#16040000
1aaaaa

#16060000
0aaaaa

#16080000
1aaaaa
b1011110111011010100 aaaad

#16100000
0aaaaa

#16120000
1aaaaa

#16140000
0aaaaa

#16160000
1aaaaa
b1011111001100111110 aaaad

#16180000
0aaaaa

#16200000
1aaaaa

#16220000
0aaaaa

#16240000
1aaaaa
b1011111011110100111 aaaad

#16260000
0aaaaa

#16280000
1aaaaa

#16300000
0aaaaa

#16320000
1aaaaa
b1011111110000010000 aaaad

#16340000
0aaaaa

#16360000
1aaaaa

#16380000
0aaaaa

#16400000
1aaaaa
b1100000000001111000 aaaad

#16420000
0aaaaa

#16440000
1aaaaa

#16460000
0aaaaa

#16480000
1aaaaa
b1100000010011011111 aaaad

#16500000
0aaaaa

#16520000
1aaaaa

#16540000
0aaaaa

#16560000
1aaaaa
b1100000100101000101 aaaad

#16580000
0aaaaa

#16600000
1aaaaa

#16620000
0aaaaa

#16640000
1aaaaa
b1100000110110101010 aaaad

#16660000
0aaaaa

#16680000
1aaaaa

#16700000
0aaaaa

#16720000
1aaaaa
b1100001001000001110 aaaad

#16740000
0aaaaa

#16760000
1aaaaa

#16780000
0aaaaa

#16800000
1aaaaa
b1100001011001110000 aaaad

#16820000
0aaaaa

#16840000
1aaaaa

#16860000
0aaaaa

#16880000
1aaaaa
b1100001101011010001 aaaad

#16900000
0aaaaa

#16920000
1aaaaa

#16940000
0aaaaa

#16960000
1aaaaa
b1100001111100110001 aaaad

#16980000
0aaaaa

#17000000
1aaaaa

#17020000
0aaaaa

#17040000
1aaaaa
b1100010001110010000 aaaad

#17060000
0aaaaa

#17080000
1aaaaa

#17100000
0aaaaa

#17120000
1aaaaa
b1100010011111101101 aaaad

#17140000
0aaaaa

#17160000
1aaaaa

#17180000
0aaaaa

#17200000
1aaaaa
b1100010110001001000 aaaad

#17220000
0aaaaa

#17240000
1aaaaa

#17260000
0aaaaa

#17280000
1aaaaa
b1100011000010100001 aaaad

#17300000
0aaaaa

#17320000
1aaaaa

#17340000
0aaaaa

#17360000
1aaaaa
b1100011010011111000 aaaad

#17380000
0aaaaa

#17400000
1aaaaa

#17420000
0aaaaa

#17440000
1aaaaa
b1100011100101001101 aaaad

#17460000
0aaaaa

#17480000
1aaaaa

#17500000
0aaaaa

#17520000
1aaaaa
b1100011110110100000 aaaad

#17540000
0aaaaa

#17560000
1aaaaa

#17580000
0aaaaa

#17600000
1aaaaa
b1100100000111110001 aaaad

#17620000
0aaaaa

#17640000
1aaaaa

#17660000
0aaaaa

#17680000
1aaaaa
b1100100011001000000 aaaad

#17700000
0aaaaa

#17720000
1aaaaa

#17740000
0aaaaa

#17760000
1aaaaa
b1100100101010001101 aaaad

#17780000
0aaaaa

#17800000
1aaaaa

#17820000
0aaaaa

#17840000
1aaaaa
b1100100111011011000 aaaad

#17860000
0aaaaa

#17880000
1aaaaa

#17900000
0aaaaa

#17920000
1aaaaa
b1100101001100100001 aaaad

#17940000
0aaaaa

#17960000
1aaaaa

#17980000
0aaaaa

#18000000
1aaaaa
b1100101011101100111 aaaad

#18020000
0aaaaa

#18040000
1aaaaa

#18060000
0aaaaa

#18080000
1aaaaa
b1100101101110101011 aaaad

#18100000
0aaaaa

#18120000
1aaaaa

#18140000
0aaaaa

#18160000
1aaaaa
b1100101111111101100 aaaad

#18180000
0aaaaa

#18200000
1aaaaa

#18220000
0aaaaa

#18240000
1aaaaa
b1100110010000101010 aaaad

#18260000
0aaaaa

#18280000
1aaaaa

#18300000
0aaaaa

#18320000
1aaaaa
b1100110100001100110 aaaad

#18340000
0aaaaa

#18360000
1aaaaa

#18380000
0aaaaa

#18400000
1aaaaa
b1100110110010011111 aaaad

#18420000
0aaaaa

#18440000
1aaaaa

#18460000
0aaaaa

#18480000
1aaaaa
b1100111000011010101 aaaad

#18500000
0aaaaa

#18520000
1aaaaa

